Delay_flip_flop_Verilog/PRJ/simulation/qsim/Delayff.msim.vcd
$comment
	File created using the following command:
		vcd file Delayff.msim.vcd -direction
$end
$date
	Sun Nov 13 23:00:59 2022
$end
$version
	ModelSim Version 10.5b
$end
$timescale
	1ps
$end

$scope module Delayff_vlg_vec_tst $end
$var reg 1 ! CLK $end
$var reg 1 " D $end
$var wire 1 # Q $end

$scope module i1 $end
$var wire 1 $ gnd $end
$var wire 1 % vcc $end
$var wire 1 & unknown $end
$var tri1 1 ' devclrn $end
$var tri1 1 ( devpor $end
$var tri1 1 ) devoe $end
$var wire 1 * Q~output_o $end
$var wire 1 + CLK~input_o $end
$var wire 1 , D~input_o $end
$var wire 1 - Q~reg0_q $end
$upscope $end
$upscope $end
$enddefinitions $end
#0
$dumpvars
0!
0"
x#
0$
1%
x&
1'
1(
1)
x*
0+
0,
0-
$end
#3967
0*
0#
#5000
1!
#5754
1+
#10000
0!
#10801
0+
#15000
1!
#15754
1+
#20000
1"
0!
#20764
1,
#20801
0+
#25000
1!
#25754
1+
#27714
1-
#30000
0!
#30801
0+
#31840
1*
1#
#35000
1!
#35754
1+
#40000
0"
0!
#40801
0+
#40811
0,
#45000
1!
#45754
1+
#47714
0-
#50000
0!
#50801
0+
#51681
0*
0#
#55000
1!
#55754
1+
#60000
1"
0!
#60764
1,
#60801
0+
#65000
1!
#65754
1+
#67714
1-
#70000
0!
#70801
0+
#71840
1*
1#
#75000
1!
#75754
1+
#80000
0"
0!
#80801
0+
#80811
0,
#85000
1!
#85754
1+
#87714
0-
#90000
0!
#90801
0+
#91681
0*
0#
#95000
1!
#95754
1+
#100000
0!
#100801
0+
#105000
1!
#105754
1+
#110000
0!
#110801
0+
#115000
1!
#115754
1+
#120000
0!
#120801
0+
#125000
1!
#125754
1+
#130000
0!
#130801
0+
#135000
1!
#135754
1+
#140000
0!
#140801
0+
#145000
1!
#145754
1+
#150000
0!
#150801
0+
#155000
1!
#155754
1+
#160000
0!
#160801
0+
#165000
1!
#165754
1+
#170000
0!
#170801
0+
#175000
1!
#175754
1+
#180000
0!
#180801
0+
#185000
1!
#185754
1+
#190000
0!
#190801
0+
#195000
1!
#195754
1+
#200000
0!
#200801
0+
#205000
1!
#205754
1+
#210000
0!
#210801
0+
#215000
1!
#215754
1+
#220000
0!
#220801
0+
#225000
1!
#225754
1+
#230000
0!
#230801
0+
#235000
1!
#235754
1+
#240000
0!
#240801
0+
#245000
1!
#245754
1+
#250000
0!
#250801
0+
#255000
1!
#255754
1+
#260000
0!
#260801
0+
#265000
1!
#265754
1+
#270000
0!
#270801
0+
#275000
1!
#275754
1+
#280000
0!
#280801
0+
#285000
1!
#285754
1+
#290000
0!
#290801
0+
#295000
1!
#295754
1+
#300000
0!
#300801
0+
#305000
1!
#305754
1+
#310000
0!
#310801
0+
#315000
1!
#315754
1+
#320000
0!
#320801
0+
#325000
1!
#325754
1+
#330000
0!
#330801
0+
#335000
1!
#335754
1+
#340000
0!
#340801
0+
#345000
1!
#345754
1+
#350000
0!
#350801
0+
#355000
1!
#355754
1+
#360000
0!
#360801
0+
#365000
1!
#365754
1+
#370000
0!
#370801
0+
#375000
1!
#375754
1+
#380000
0!
#380801
0+
#385000
1!
#385754
1+
#390000
0!
#390801
0+
#395000
1!
#395754
1+
#400000
0!
#400801
0+
#405000
1!
#405754
1+
#410000
0!
#410801
0+
#415000
1!
#415754
1+
#420000
0!
#420801
0+
#425000
1!
#425754
1+
#430000
0!
#430801
0+
#435000
1!
#435754
1+
#440000
0!
#440801
0+
#445000
1!
#445754
1+
#450000
0!
#450801
0+
#455000
1!
#455754
1+
#460000
0!
#460801
0+
#465000
1!
#465754
1+
#470000
0!
#470801
0+
#475000
1!
#475754
1+
#480000
0!
#480801
0+
#485000
1!
#485754
1+
#490000
0!
#490801
0+
#495000
1!
#495754
1+
#500000
0!
#500801
0+
#505000
1!
#505754
1+
#510000
0!
#510801
0+
#515000
1!
#515754
1+
#520000
0!
#520801
0+
#525000
1!
#525754
1+
#530000
0!
#530801
0+
#535000
1!
#535754
1+
#540000
0!
#540801
0+
#545000
1!
#545754
1+
#550000
0!
#550801
0+
#555000
1!
#555754
1+
#560000
0!
#560801
0+
#565000
1!
#565754
1+
#570000
0!
#570801
0+
#575000
1!
#575754
1+
#580000
0!
#580801
0+
#585000
1!
#585754
1+
#590000
0!
#590801
0+
#595000
1!
#595754
1+
#600000
0!
#600801
0+
#605000
1!
#605754
1+
#610000
0!
#610801
0+
#615000
1!
#615754
1+
#620000
0!
#620801
0+
#625000
1!
#625754
1+
#630000
0!
#630801
0+
#635000
1!
#635754
1+
#640000
0!
#640801
0+
#645000
1!
#645754
1+
#650000
0!
#650801
0+
#655000
1!
#655754
1+
#660000
0!
#660801
0+
#665000
1!
#665754
1+
#670000
0!
#670801
0+
#675000
1!
#675754
1+
#680000
0!
#680801
0+
#685000
1!
#685754
1+
#690000
0!
#690801
0+
#695000
1!
#695754
1+
#700000
0!
#700801
0+
#705000
1!
#705754
1+
#710000
0!
#710801
0+
#715000
1!
#715754
1+
#720000
0!
#720801
0+
#725000
1!
#725754
1+
#730000
0!
#730801
0+
#735000
1!
#735754
1+
#740000
0!
#740801
0+
#745000
1!
#745754
1+
#750000
0!
#750801
0+
#755000
1!
#755754
1+
#760000
0!
#760801
0+
#765000
1!
#765754
1+
#770000
0!
#770801
0+
#775000
1!
#775754
1+
#780000
0!
#780801
0+
#785000
1!
#785754
1+
#790000
0!
#790801
0+
#795000
1!
#795754
1+
#800000
0!
#800801
0+
#805000
1!
#805754
1+
#810000
0!
#810801
0+
#815000
1!
#815754
1+
#820000
0!
#820801
0+
#825000
1!
#825754
1+
#830000
0!
#830801
0+
#835000
1!
#835754
1+
#840000
0!
#840801
0+
#845000
1!
#845754
1+
#850000
0!
#850801
0+
#855000
1!
#855754
1+
#860000
0!
#860801
0+
#865000
1!
#865754
1+
#870000
0!
#870801
0+
#875000
1!
#875754
1+
#880000
0!
#880801
0+
#885000
1!
#885754
1+
#890000
0!
#890801
0+
#895000
1!
#895754
1+
#900000
0!
#900801
0+
#905000
1!
#905754
1+
#910000
0!
#910801
0+
#915000
1!
#915754
1+
#920000
0!
#920801
0+
#925000
1!
#925754
1+
#930000
0!
#930801
0+
#935000
1!
#935754
1+
#940000
0!
#940801
0+
#945000
1!
#945754
1+
#950000
0!
#950801
0+
#955000
1!
#955754
1+
#960000
0!
#960801
0+
#965000
1!
#965754
1+
#970000
0!
#970801
0+
#975000
1!
#975754
1+
#980000
0!
#980801
0+
#985000
1!
#985754
1+
#990000
0!
#990801
0+
#995000
1!
#995754
1+
