Halfadder/prj/simulation/qsim/Halfadder.msim.vcd
$comment
	File created using the following command:
		vcd file Halfadder.msim.vcd -direction
$end
$date
	Sat Mar 25 17:33:49 2023
$end
$version
	ModelSim Version 10.5b
$end
$timescale
	1ps
$end

$scope module Halfadder_vlg_vec_tst $end
$var reg 1 ! a $end
$var reg 1 " b $end
$var wire 1 # cout $end
$var wire 1 $ sout $end

$scope module i1 $end
$var wire 1 % gnd $end
$var wire 1 & vcc $end
$var wire 1 ' unknown $end
$var tri1 1 ( devclrn $end
$var tri1 1 ) devpor $end
$var tri1 1 * devoe $end
$var wire 1 + sout~output_o $end
$var wire 1 , cout~output_o $end
$var wire 1 - b~input_o $end
$var wire 1 . a~input_o $end
$var wire 1 / inst4~combout $end
$var wire 1 0 inst~combout $end
$upscope $end
$upscope $end
$enddefinitions $end
#0
$dumpvars
0!
0"
0#
0$
0%
1&
x'
1(
1)
1*
0+
0,
0-
0.
0/
00
$end
#2500
1"
1-
1/
1+
1$
#5000
1!
0"
1.
0-
#7500
1"
1-
10
0/
0+
1,
1#
0$
#10000
0!
0"
0.
0-
00
0,
0#
#12500
1"
1-
1/
1+
1$
#15000
1!
0"
1.
0-
#17500
1"
1-
10
0/
0+
1,
1#
0$
#20000
0!
0"
0.
0-
00
0,
0#
#22500
1"
1-
1/
1+
1$
#25000
1!
0"
1.
0-
#27500
1"
1-
10
0/
0+
1,
1#
0$
#30000
0!
0"
0.
0-
00
0,
0#
#32500
1"
1-
1/
1+
1$
#35000
1!
0"
1.
0-
#37500
1"
1-
10
0/
0+
1,
1#
0$
#40000
0!
0"
0.
0-
00
0,
0#
#42500
1"
1-
1/
1+
1$
#45000
1!
0"
1.
0-
#47500
1"
1-
10
0/
0+
1,
1#
0$
#50000
0!
0"
0.
0-
00
0,
0#
#52500
1"
1-
1/
1+
1$
#55000
1!
0"
1.
0-
#57500
1"
1-
10
0/
0+
1,
1#
0$
#60000
0!
0"
0.
0-
00
0,
0#
#62500
1"
1-
1/
1+
1$
#65000
1!
0"
1.
0-
#67500
1"
1-
10
0/
0+
1,
1#
0$
#70000
0!
0"
0.
0-
00
0,
0#
#72500
1"
1-
1/
1+
1$
#75000
1!
0"
1.
0-
#77500
1"
1-
10
0/
0+
1,
1#
0$
#80000
0!
0"
0.
0-
00
0,
0#
#82500
1"
1-
1/
1+
1$
#85000
1!
0"
1.
0-
#87500
1"
1-
10
0/
0+
1,
1#
0$
#90000
0!
0"
0.
0-
00
0,
0#
#92500
1"
1-
1/
1+
1$
#95000
1!
0"
1.
0-
#97500
1"
1-
10
0/
0+
1,
1#
0$
#100000
0!
0"
0.
0-
00
0,
0#
#102500
1"
1-
1/
1+
1$
#105000
1!
0"
1.
0-
#107500
1"
1-
10
0/
0+
1,
1#
0$
#110000
0!
0"
0.
0-
00
0,
0#
#112500
1"
1-
1/
1+
1$
#115000
1!
0"
1.
0-
#117500
1"
1-
10
0/
0+
1,
1#
0$
#120000
0!
0"
0.
0-
00
0,
0#
#122500
1"
1-
1/
1+
1$
#125000
1!
0"
1.
0-
#127500
1"
1-
10
0/
0+
1,
1#
0$
#130000
0!
0"
0.
0-
00
0,
0#
#132500
1"
1-
1/
1+
1$
#135000
1!
0"
1.
0-
#137500
1"
1-
10
0/
0+
1,
1#
0$
#140000
0!
0"
0.
0-
00
0,
0#
#142500
1"
1-
1/
1+
1$
#145000
1!
0"
1.
0-
#147500
1"
1-
10
0/
0+
1,
1#
0$
#150000
0!
0"
0.
0-
00
0,
0#
#152500
1"
1-
1/
1+
1$
#155000
1!
0"
1.
0-
#157500
1"
1-
10
0/
0+
1,
1#
0$
#160000
0!
0"
0.
0-
00
0,
0#
#162500
1"
1-
1/
1+
1$
#165000
1!
0"
1.
0-
#167500
1"
1-
10
0/
0+
1,
1#
0$
#170000
0!
0"
0.
0-
00
0,
0#
#172500
1"
1-
1/
1+
1$
#175000
1!
0"
1.
0-
#177500
1"
1-
10
0/
0+
1,
1#
0$
#180000
0!
0"
0.
0-
00
0,
0#
#182500
1"
1-
1/
1+
1$
#185000
1!
0"
1.
0-
#187500
1"
1-
10
0/
0+
1,
1#
0$
#190000
0!
0"
0.
0-
00
0,
0#
#192500
1"
1-
1/
1+
1$
#195000
1!
0"
1.
0-
#197500
1"
1-
10
0/
0+
1,
1#
0$
#200000
0!
0"
0.
0-
00
0,
0#
#202500
1"
1-
1/
1+
1$
#205000
1!
0"
1.
0-
#207500
1"
1-
10
0/
0+
1,
1#
0$
#210000
0!
0"
0.
0-
00
0,
0#
#212500
1"
1-
1/
1+
1$
#215000
1!
0"
1.
0-
#217500
1"
1-
10
0/
0+
1,
1#
0$
#220000
0!
0"
0.
0-
00
0,
0#
#222500
1"
1-
1/
1+
1$
#225000
1!
0"
1.
0-
#227500
1"
1-
10
0/
0+
1,
1#
0$
#230000
0!
0"
0.
0-
00
0,
0#
#232500
1"
1-
1/
1+
1$
#235000
1!
0"
1.
0-
#237500
1"
1-
10
0/
0+
1,
1#
0$
#240000
0!
0"
0.
0-
00
0,
0#
#242500
1"
1-
1/
1+
1$
#245000
1!
0"
1.
0-
#247500
1"
1-
10
0/
0+
1,
1#
0$
#250000
0!
0"
0.
0-
00
0,
0#
#252500
1"
1-
1/
1+
1$
#255000
1!
0"
1.
0-
#257500
1"
1-
10
0/
0+
1,
1#
0$
#260000
0!
0"
0.
0-
00
0,
0#
#262500
1"
1-
1/
1+
1$
#265000
1!
0"
1.
0-
#267500
1"
1-
10
0/
0+
1,
1#
0$
#270000
0!
0"
0.
0-
00
0,
0#
#272500
1"
1-
1/
1+
1$
#275000
1!
0"
1.
0-
#277500
1"
1-
10
0/
0+
1,
1#
0$
#280000
0!
0"
0.
0-
00
0,
0#
#282500
1"
1-
1/
1+
1$
#285000
1!
0"
1.
0-
#287500
1"
1-
10
0/
0+
1,
1#
0$
#290000
0!
0"
0.
0-
00
0,
0#
#292500
1"
1-
1/
1+
1$
#295000
1!
0"
1.
0-
#297500
1"
1-
10
0/
0+
1,
1#
0$
#300000
0!
0"
0.
0-
00
0,
0#
#302500
1"
1-
1/
1+
1$
#305000
1!
0"
1.
0-
#307500
1"
1-
10
0/
0+
1,
1#
0$
#310000
0!
0"
0.
0-
00
0,
0#
#312500
1"
1-
1/
1+
1$
#315000
1!
0"
1.
0-
#317500
1"
1-
10
0/
0+
1,
1#
0$
#320000
0!
0"
0.
0-
00
0,
0#
#322500
1"
1-
1/
1+
1$
#325000
1!
0"
1.
0-
#327500
1"
1-
10
0/
0+
1,
1#
0$
#330000
0!
0"
0.
0-
00
0,
0#
#332500
1"
1-
1/
1+
1$
#335000
1!
0"
1.
0-
#337500
1"
1-
10
0/
0+
1,
1#
0$
#340000
0!
0"
0.
0-
00
0,
0#
#342500
1"
1-
1/
1+
1$
#345000
1!
0"
1.
0-
#347500
1"
1-
10
0/
0+
1,
1#
0$
#350000
0!
0"
0.
0-
00
0,
0#
#352500
1"
1-
1/
1+
1$
#355000
1!
0"
1.
0-
#357500
1"
1-
10
0/
0+
1,
1#
0$
#360000
0!
0"
0.
0-
00
0,
0#
#362500
1"
1-
1/
1+
1$
#365000
1!
0"
1.
0-
#367500
1"
1-
10
0/
0+
1,
1#
0$
#370000
0!
0"
0.
0-
00
0,
0#
#372500
1"
1-
1/
1+
1$
#375000
1!
0"
1.
0-
#377500
1"
1-
10
0/
0+
1,
1#
0$
#380000
0!
0"
0.
0-
00
0,
0#
#382500
1"
1-
1/
1+
1$
#385000
1!
0"
1.
0-
#387500
1"
1-
10
0/
0+
1,
1#
0$
#390000
0!
0"
0.
0-
00
0,
0#
#392500
1"
1-
1/
1+
1$
#395000
1!
0"
1.
0-
#397500
1"
1-
10
0/
0+
1,
1#
0$
#400000
0!
0"
0.
0-
00
0,
0#
#402500
1"
1-
1/
1+
1$
#405000
1!
0"
1.
0-
#407500
1"
1-
10
0/
0+
1,
1#
0$
#410000
0!
0"
0.
0-
00
0,
0#
#412500
1"
1-
1/
1+
1$
#415000
1!
0"
1.
0-
#417500
1"
1-
10
0/
0+
1,
1#
0$
#420000
0!
0"
0.
0-
00
0,
0#
#422500
1"
1-
1/
1+
1$
#425000
1!
0"
1.
0-
#427500
1"
1-
10
0/
0+
1,
1#
0$
#430000
0!
0"
0.
0-
00
0,
0#
#432500
1"
1-
1/
1+
1$
#435000
1!
0"
1.
0-
#437500
1"
1-
10
0/
0+
1,
1#
0$
#440000
0!
0"
0.
0-
00
0,
0#
#442500
1"
1-
1/
1+
1$
#445000
1!
0"
1.
0-
#447500
1"
1-
10
0/
0+
1,
1#
0$
#450000
0!
0"
0.
0-
00
0,
0#
#452500
1"
1-
1/
1+
1$
#455000
1!
0"
1.
0-
#457500
1"
1-
10
0/
0+
1,
1#
0$
#460000
0!
0"
0.
0-
00
0,
0#
#462500
1"
1-
1/
1+
1$
#465000
1!
0"
1.
0-
#467500
1"
1-
10
0/
0+
1,
1#
0$
#470000
0!
0"
0.
0-
00
0,
0#
#472500
1"
1-
1/
1+
1$
#475000
1!
0"
1.
0-
#477500
1"
1-
10
0/
0+
1,
1#
0$
#480000
0!
0"
0.
0-
00
0,
0#
#482500
1"
1-
1/
1+
1$
#485000
1!
0"
1.
0-
#487500
1"
1-
10
0/
0+
1,
1#
0$
#490000
0!
0"
0.
0-
00
0,
0#
#492500
1"
1-
1/
1+
1$
#495000
1!
0"
1.
0-
#497500
1"
1-
10
0/
0+
1,
1#
0$
#500000
0!
0"
0.
0-
00
0,
0#
#502500
1"
1-
1/
1+
1$
#505000
1!
0"
1.
0-
#507500
1"
1-
10
0/
0+
1,
1#
0$
#510000
0!
0"
0.
0-
00
0,
0#
#512500
1"
1-
1/
1+
1$
#515000
1!
0"
1.
0-
#517500
1"
1-
10
0/
0+
1,
1#
0$
#520000
0!
0"
0.
0-
00
0,
0#
#522500
1"
1-
1/
1+
1$
#525000
1!
0"
1.
0-
#527500
1"
1-
10
0/
0+
1,
1#
0$
#530000
0!
0"
0.
0-
00
0,
0#
#532500
1"
1-
1/
1+
1$
#535000
1!
0"
1.
0-
#537500
1"
1-
10
0/
0+
1,
1#
0$
#540000
0!
0"
0.
0-
00
0,
0#
#542500
1"
1-
1/
1+
1$
#545000
1!
0"
1.
0-
#547500
1"
1-
10
0/
0+
1,
1#
0$
#550000
0!
0"
0.
0-
00
0,
0#
#552500
1"
1-
1/
1+
1$
#555000
1!
0"
1.
0-
#557500
1"
1-
10
0/
0+
1,
1#
0$
#560000
0!
0"
0.
0-
00
0,
0#
#562500
1"
1-
1/
1+
1$
#565000
1!
0"
1.
0-
#567500
1"
1-
10
0/
0+
1,
1#
0$
#570000
0!
0"
0.
0-
00
0,
0#
#572500
1"
1-
1/
1+
1$
#575000
1!
0"
1.
0-
#577500
1"
1-
10
0/
0+
1,
1#
0$
#580000
0!
0"
0.
0-
00
0,
0#
#582500
1"
1-
1/
1+
1$
#585000
1!
0"
1.
0-
#587500
1"
1-
10
0/
0+
1,
1#
0$
#590000
0!
0"
0.
0-
00
0,
0#
#592500
1"
1-
1/
1+
1$
#595000
1!
0"
1.
0-
#597500
1"
1-
10
0/
0+
1,
1#
0$
#600000
0!
0"
0.
0-
00
0,
0#
#602500
1"
1-
1/
1+
1$
#605000
1!
0"
1.
0-
#607500
1"
1-
10
0/
0+
1,
1#
0$
#610000
0!
0"
0.
0-
00
0,
0#
#612500
1"
1-
1/
1+
1$
#615000
1!
0"
1.
0-
#617500
1"
1-
10
0/
0+
1,
1#
0$
#620000
0!
0"
0.
0-
00
0,
0#
#622500
1"
1-
1/
1+
1$
#625000
1!
0"
1.
0-
#627500
1"
1-
10
0/
0+
1,
1#
0$
#630000
0!
0"
0.
0-
00
0,
0#
#632500
1"
1-
1/
1+
1$
#635000
1!
0"
1.
0-
#637500
1"
1-
10
0/
0+
1,
1#
0$
#640000
0!
0"
0.
0-
00
0,
0#
#642500
1"
1-
1/
1+
1$
#645000
1!
0"
1.
0-
#647500
1"
1-
10
0/
0+
1,
1#
0$
#650000
0!
0"
0.
0-
00
0,
0#
#652500
1"
1-
1/
1+
1$
#655000
1!
0"
1.
0-
#657500
1"
1-
10
0/
0+
1,
1#
0$
#660000
0!
0"
0.
0-
00
0,
0#
#662500
1"
1-
1/
1+
1$
#665000
1!
0"
1.
0-
#667500
1"
1-
10
0/
0+
1,
1#
0$
#670000
0!
0"
0.
0-
00
0,
0#
#672500
1"
1-
1/
1+
1$
#675000
1!
0"
1.
0-
#677500
1"
1-
10
0/
0+
1,
1#
0$
#680000
0!
0"
0.
0-
00
0,
0#
#682500
1"
1-
1/
1+
1$
#685000
1!
0"
1.
0-
#687500
1"
1-
10
0/
0+
1,
1#
0$
#690000
0!
0"
0.
0-
00
0,
0#
#692500
1"
1-
1/
1+
1$
#695000
1!
0"
1.
0-
#697500
1"
1-
10
0/
0+
1,
1#
0$
#700000
0!
0"
0.
0-
00
0,
0#
#702500
1"
1-
1/
1+
1$
#705000
1!
0"
1.
0-
#707500
1"
1-
10
0/
0+
1,
1#
0$
#710000
0!
0"
0.
0-
00
0,
0#
#712500
1"
1-
1/
1+
1$
#715000
1!
0"
1.
0-
#717500
1"
1-
10
0/
0+
1,
1#
0$
#720000
0!
0"
0.
0-
00
0,
0#
#722500
1"
1-
1/
1+
1$
#725000
1!
0"
1.
0-
#727500
1"
1-
10
0/
0+
1,
1#
0$
#730000
0!
0"
0.
0-
00
0,
0#
#732500
1"
1-
1/
1+
1$
#735000
1!
0"
1.
0-
#737500
1"
1-
10
0/
0+
1,
1#
0$
#740000
0!
0"
0.
0-
00
0,
0#
#742500
1"
1-
1/
1+
1$
#745000
1!
0"
1.
0-
#747500
1"
1-
10
0/
0+
1,
1#
0$
#750000
0!
0"
0.
0-
00
0,
0#
#752500
1"
1-
1/
1+
1$
#755000
1!
0"
1.
0-
#757500
1"
1-
10
0/
0+
1,
1#
0$
#760000
0!
0"
0.
0-
00
0,
0#
#762500
1"
1-
1/
1+
1$
#765000
1!
0"
1.
0-
#767500
1"
1-
10
0/
0+
1,
1#
0$
#770000
0!
0"
0.
0-
00
0,
0#
#772500
1"
1-
1/
1+
1$
#775000
1!
0"
1.
0-
#777500
1"
1-
10
0/
0+
1,
1#
0$
#780000
0!
0"
0.
0-
00
0,
0#
#782500
1"
1-
1/
1+
1$
#785000
1!
0"
1.
0-
#787500
1"
1-
10
0/
0+
1,
1#
0$
#790000
0!
0"
0.
0-
00
0,
0#
#792500
1"
1-
1/
1+
1$
#795000
1!
0"
1.
0-
#797500
1"
1-
10
0/
0+
1,
1#
0$
#800000
0!
0"
0.
0-
00
0,
0#
#802500
1"
1-
1/
1+
1$
#805000
1!
0"
1.
0-
#807500
1"
1-
10
0/
0+
1,
1#
0$
#810000
0!
0"
0.
0-
00
0,
0#
#812500
1"
1-
1/
1+
1$
#815000
1!
0"
1.
0-
#817500
1"
1-
10
0/
0+
1,
1#
0$
#820000
0!
0"
0.
0-
00
0,
0#
#822500
1"
1-
1/
1+
1$
#825000
1!
0"
1.
0-
#827500
1"
1-
10
0/
0+
1,
1#
0$
#830000
0!
0"
0.
0-
00
0,
0#
#832500
1"
1-
1/
1+
1$
#835000
1!
0"
1.
0-
#837500
1"
1-
10
0/
0+
1,
1#
0$
#840000
0!
0"
0.
0-
00
0,
0#
#842500
1"
1-
1/
1+
1$
#845000
1!
0"
1.
0-
#847500
1"
1-
10
0/
0+
1,
1#
0$
#850000
0!
0"
0.
0-
00
0,
0#
#852500
1"
1-
1/
1+
1$
#855000
1!
0"
1.
0-
#857500
1"
1-
10
0/
0+
1,
1#
0$
#860000
0!
0"
0.
0-
00
0,
0#
#862500
1"
1-
1/
1+
1$
#865000
1!
0"
1.
0-
#867500
1"
1-
10
0/
0+
1,
1#
0$
#870000
0!
0"
0.
0-
00
0,
0#
#872500
1"
1-
1/
1+
1$
#875000
1!
0"
1.
0-
#877500
1"
1-
10
0/
0+
1,
1#
0$
#880000
0!
0"
0.
0-
00
0,
0#
#882500
1"
1-
1/
1+
1$
#885000
1!
0"
1.
0-
#887500
1"
1-
10
0/
0+
1,
1#
0$
#890000
0!
0"
0.
0-
00
0,
0#
#892500
1"
1-
1/
1+
1$
#895000
1!
0"
1.
0-
#897500
1"
1-
10
0/
0+
1,
1#
0$
#900000
0!
0"
0.
0-
00
0,
0#
#902500
1"
1-
1/
1+
1$
#905000
1!
0"
1.
0-
#907500
1"
1-
10
0/
0+
1,
1#
0$
#910000
0!
0"
0.
0-
00
0,
0#
#912500
1"
1-
1/
1+
1$
#915000
1!
0"
1.
0-
#917500
1"
1-
10
0/
0+
1,
1#
0$
#920000
0!
0"
0.
0-
00
0,
0#
#922500
1"
1-
1/
1+
1$
#925000
1!
0"
1.
0-
#927500
1"
1-
10
0/
0+
1,
1#
0$
#930000
0!
0"
0.
0-
00
0,
0#
#932500
1"
1-
1/
1+
1$
#935000
1!
0"
1.
0-
#937500
1"
1-
10
0/
0+
1,
1#
0$
#940000
0!
0"
0.
0-
00
0,
0#
#942500
1"
1-
1/
1+
1$
#945000
1!
0"
1.
0-
#947500
1"
1-
10
0/
0+
1,
1#
0$
#950000
0!
0"
0.
0-
00
0,
0#
#952500
1"
1-
1/
1+
1$
#955000
1!
0"
1.
0-
#957500
1"
1-
10
0/
0+
1,
1#
0$
#960000
0!
0"
0.
0-
00
0,
0#
#962500
1"
1-
1/
1+
1$
#965000
1!
0"
1.
0-
#967500
1"
1-
10
0/
0+
1,
1#
0$
#970000
0!
0"
0.
0-
00
0,
0#
#972500
1"
1-
1/
1+
1$
#975000
1!
0"
1.
0-
#977500
1"
1-
10
0/
0+
1,
1#
0$
#980000
0!
0"
0.
0-
00
0,
0#
#982500
1"
1-
1/
1+
1$
#985000
1!
0"
1.
0-
#987500
1"
1-
10
0/
0+
1,
1#
0$
#990000
0!
0"
0.
0-
00
0,
0#
#992500
1"
1-
1/
1+
1$
#995000
1!
0"
1.
0-
#997500
1"
1-
10
0/
0+
1,
1#
0$
