Full_adder4/prj/simulation/qsim/Full_adder4.msim.vcd
$comment
	File created using the following command:
		vcd file Full_adder4.msim.vcd -direction
$end
$date
	Sat Mar 25 17:47:51 2023
$end
$version
	ModelSim Version 10.5b
$end
$timescale
	1ps
$end

$scope module Full_adder4_vlg_vec_tst $end
$var reg 4 ! a [3:0] $end
$var reg 4 " b [3:0] $end
$var reg 1 # cin $end
$var wire 1 $ cout $end
$var wire 1 % sum [3] $end
$var wire 1 & sum [2] $end
$var wire 1 ' sum [1] $end
$var wire 1 ( sum [0] $end

$scope module i1 $end
$var wire 1 ) gnd $end
$var wire 1 * vcc $end
$var wire 1 + unknown $end
$var tri1 1 , devclrn $end
$var tri1 1 - devpor $end
$var tri1 1 . devoe $end
$var wire 1 / sum[0]~output_o $end
$var wire 1 0 sum[1]~output_o $end
$var wire 1 1 sum[2]~output_o $end
$var wire 1 2 sum[3]~output_o $end
$var wire 1 3 cout~output_o $end
$var wire 1 4 a[0]~input_o $end
$var wire 1 5 b[0]~input_o $end
$var wire 1 6 cin~input_o $end
$var wire 1 7 Add0~1_cout $end
$var wire 1 8 Add0~2_combout $end
$var wire 1 9 b[1]~input_o $end
$var wire 1 : a[1]~input_o $end
$var wire 1 ; Add0~3 $end
$var wire 1 < Add0~4_combout $end
$var wire 1 = a[2]~input_o $end
$var wire 1 > b[2]~input_o $end
$var wire 1 ? Add0~5 $end
$var wire 1 @ Add0~6_combout $end
$var wire 1 A a[3]~input_o $end
$var wire 1 B b[3]~input_o $end
$var wire 1 C Add0~7 $end
$var wire 1 D Add0~8_combout $end
$var wire 1 E Add0~9 $end
$var wire 1 F Add0~10_combout $end
$upscope $end
$upscope $end
$enddefinitions $end
#0
$dumpvars
b0 !
b0 "
0#
0$
0(
0'
0&
0%
0)
1*
x+
1,
1-
1.
0/
00
01
02
03
04
05
06
07
08
09
0:
1;
0<
0=
0>
0?
0@
0A
0B
1C
0D
0E
0F
$end
#2500
b1 !
14
18
1/
1(
#3500
b1 "
15
0;
08
0/
0(
1<
10
1'
#5000
b11 !
1#
b10 !
04
1:
16
1;
1?
17
18
0<
00
1/
0?
0;
1(
0'
1<
1@
08
0/
11
10
1?
1'
1&
0(
0@
0<
00
01
0&
0'
1@
11
1&
#7000
b11 "
b10 "
05
19
1;
18
1<
10
1/
1(
1'
0<
00
0'
#7500
b11 !
14
0;
08
0/
0(
1<
10
1'
#10000
b111 !
b101 !
0#
b100 !
04
0:
1=
06
1;
0C
07
18
0<
0@
01
00
1/
0?
1(
0'
0&
1<
1D
08
0/
12
10
1C
1'
1%
0(
1@
11
1&
0D
02
0%
#10500
b11 "
15
18
1/
1(
#12500
b101 !
14
0;
08
0/
1?
0(
0<
00
0C
0'
0@
01
0&
1D
12
1%
#14000
b111 "
b101 "
b100 "
05
09
1>
1;
0?
18
1<
1@
11
10
1/
1(
1'
1&
0<
0@
01
00
0'
0&
#15000
b111 !
1#
b110 !
04
1:
16
17
08
1<
10
0/
0(
1'
18
1/
1(
#17500
b101 "
b111 !
14
15
0;
1?
0<
00
0'
1@
11
1&
#20000
b1111 !
b1011 !
b1001 !
0#
b1000 !
04
0:
0=
1A
06
0?
1E
07
08
1<
0@
0D
02
01
10
0/
1C
1;
0(
1'
0&
0%
1@
1F
18
1/
13
11
0E
1&
1$
1(
1D
0<
00
12
1%
0'
0F
03
0$
#21000
b111 "
b110 "
05
19
08
1<
10
0/
0(
1'
#22500
b1001 !
14
18
1/
1(
#24500
b111 "
15
0;
08
0/
1?
0(
0<
00
0C
0'
0@
01
1E
0&
0D
02
0%
1F
13
1$
#25000
b1011 !
1#
b1010 !
04
1:
16
1;
17
18
1<
10
1/
0;
1(
1'
0<
08
0/
00
0'
0(
1<
10
1'
#27500
b1011 !
14
18
1/
1(
#28000
b1111 "
b1011 "
b1001 "
b1000 "
05
09
0>
1B
1C
08
0<
1@
1D
12
11
00
0/
0(
0'
1&
1%
0D
02
0%
#30000
b1111 !
b1101 !
0#
b1100 !
04
0:
1=
06
1;
0?
0C
07
18
1<
0@
01
10
1/
1C
1(
1'
0&
0<
1@
1D
08
0/
12
11
00
0'
1&
1%
0(
0D
02
0%
#31500
b1001 "
15
18
1/
1(
#32500
b1101 !
14
0;
08
0/
0(
1<
10
1'
#35000
b1011 "
b1111 !
1#
b1010 "
b1110 !
04
1:
05
19
16
1;
1?
17
0C
0<
0@
18
1/
01
00
0'
0&
1(
1D
12
1%
#37500
b1111 !
14
0;
08
0/
0(
1<
10
1'
#38500
b1011 "
15
18
1/
1(
#40000
b111 !
b11 !
b1 !
0#
b0 !
04
0:
0=
0A
06
1C
07
08
0<
1@
0D
02
11
00
0/
0E
1;
0(
0'
1&
0%
1D
18
1/
12
0?
1%
1(
0F
1<
10
03
0$
1'
0@
01
0&
#42000
b1111 "
b1101 "
b1100 "
05
09
1>
08
0<
1@
11
00
0/
0(
0'
1&
#42500
b1 !
14
18
1/
1(
#45000
b11 !
1#
b10 !
04
1:
16
17
08
1<
10
0/
0(
1'
18
1/
1(
#45500
b1101 "
15
0;
08
0/
1?
0(
0<
00
0C
0'
0@
01
1E
0&
0D
02
0%
1F
13
1$
#47500
b11 !
14
18
1/
1(
#49000
b1111 "
b1110 "
05
19
08
1<
10
0/
0(
1'
#50000
b111 !
b101 !
0#
b100 !
04
0:
1=
06
1;
07
18
0<
1@
11
00
1/
0?
1(
0'
1&
1<
08
0/
10
1'
0(
0@
01
0&
#52500
b1111 "
b101 !
14
15
0;
1?
0<
00
0'
1@
11
1&
#55000
b111 !
1#
b110 !
04
1:
16
1;
17
18
1<
10
1/
0;
1(
1'
0<
08
0/
00
0'
0(
1<
10
1'
#56000
b111 "
b11 "
b1 "
b0 "
05
09
0>
0B
1;
0E
18
0<
0@
1D
12
01
00
1/
0?
1(
0'
0&
1%
1<
0F
03
10
1C
1'
0$
1@
11
1&
0D
02
0%
#57500
b111 !
14
0;
08
0/
1?
0(
0<
00
0C
0'
0@
01
0&
1D
12
1%
#59500
b1 "
15
18
1/
1(
#60000
b1111 !
b1011 !
b1001 !
0#
b1000 !
04
0:
0=
1A
06
0?
1C
1E
07
08
1<
1@
0D
02
11
10
0/
0E
1;
0(
1'
1&
0%
0@
1D
1F
18
1/
13
12
01
0&
1%
1$
1(
0F
0<
00
03
0$
0'
#62500
b1001 !
14
0;
08
0/
0(
1<
10
1'
#63000
b11 "
b10 "
05
19
1;
1?
18
0<
00
1/
0?
1(
0'
1<
1@
11
10
1'
1&
0@
01
0&
#65000
b1011 !
1#
b1010 !
04
1:
16
1?
17
08
0<
00
0/
0(
0'
1@
18
1/
11
1&
1(
#66500
b11 "
15
0;
08
0/
0(
1<
10
1'
#67500
b1011 !
14
18
1/
1(
#70000
b111 "
b1111 !
b101 "
b1101 !
0#
b100 "
b1100 !
04
0:
1=
05
09
1>
06
1;
0?
0C
07
1E
0<
0@
0D
08
0/
02
01
00
0'
0&
0%
0(
1F
13
1$
#72500
b1101 !
14
18
1/
1(
#73500
b101 "
15
0;
08
0/
0(
1<
10
1'
#75000
b1111 !
1#
b1110 !
04
1:
16
1;
1?
17
18
0<
00
1/
0?
0;
1(
0'
1<
1@
08
0/
11
10
1?
1'
1&
0(
0@
0<
00
01
0&
0'
1@
11
1&
#77000
b111 "
b110 "
05
19
1;
18
1<
10
1/
1(
1'
0<
00
0'
#77500
b1111 !
14
0;
08
0/
0(
1<
10
1'
#80000
b111 !
b11 !
b1 !
0#
b0 !
04
0:
0=
0A
06
1;
0E
07
18
0<
0@
1D
12
01
00
1/
0?
1(
0'
0&
1%
1<
0F
08
0/
03
10
1C
1'
0$
0(
1@
11
1&
0D
02
0%
#80500
b111 "
15
18
1/
1(
#82500
b1 !
14
0;
08
0/
1?
0(
0<
00
0C
0'
0@
01
0&
1D
12
1%
#84000
b1111 "
b1011 "
b1001 "
b1000 "
05
09
0>
1B
1;
0?
1C
1E
18
1<
1@
0D
02
11
10
1/
0E
1(
1'
1&
0%
0<
0@
1D
1F
13
12
01
00
0'
0&
1%
1$
0F
03
0$
#85000
b11 !
1#
b10 !
04
1:
16
17
08
1<
10
0/
0(
1'
18
1/
1(
#87500
b1001 "
b11 !
14
15
0;
1?
0<
00
0'
1@
11
1&
#90000
b111 !
b101 !
0#
b100 !
04
0:
1=
06
0?
0C
07
08
1<
0@
01
10
0/
1C
1E
1;
0(
1'
0&
1@
0D
18
1/
02
11
0E
1&
0%
1(
1D
1F
0<
00
13
12
1%
1$
0'
0F
03
0$
#91000
b1011 "
b1010 "
05
19
08
1<
10
0/
0(
1'
#92500
b101 !
14
18
1/
1(
#94500
b1011 "
15
0;
08
0/
1?
0(
0<
00
0C
0'
0@
01
1E
0&
0D
02
0%
1F
13
1$
#95000
b111 !
1#
b110 !
04
1:
16
1;
17
18
1<
10
1/
0;
1(
1'
0<
08
0/
00
0'
0(
1<
10
1'
#97500
b111 !
14
18
1/
1(
#98000
b1111 "
b1101 "
b1100 "
05
09
1>
08
0<
1@
11
00
0/
0(
0'
1&
#100000
b1111 !
b1011 !
b1001 !
0#
b1000 !
04
0:
0=
1A
06
1;
0?
07
18
1<
0@
1D
12
01
10
1/
1C
1(
1'
0&
1%
0<
1@
08
0/
11
00
0'
1&
0(
0D
02
0%
#101500
b1101 "
15
18
1/
1(
#102500
b1001 !
14
0;
08
0/
0(
1<
10
1'
#105000
b1111 "
b1011 !
1#
b1110 "
b1010 !
04
1:
05
19
16
1;
1?
17
0C
0<
0@
18
1/
01
00
0'
0&
1(
1D
12
1%
#107500
b1011 !
14
0;
08
0/
0(
1<
10
1'
#108500
b1111 "
15
18
1/
1(
#110000
b1111 !
b1101 !
0#
b1100 !
04
0:
1=
06
07
08
0<
1@
11
00
0/
1;
0(
0'
1&
18
1/
0?
1(
1<
10
1'
0@
01
0&
#112000
b111 "
b11 "
b1 "
b0 "
05
09
0>
0B
1C
08
0<
1@
0D
02
11
00
0/
0E
0(
0'
1&
0%
1D
12
1%
0F
03
0$
#112500
b1101 !
14
18
1/
1(
#115000
b1111 !
1#
b1110 !
04
1:
16
17
08
1<
10
0/
0(
1'
18
1/
1(
#115500
b1 "
15
0;
08
0/
1?
0(
0<
00
0C
0'
0@
01
1E
0&
0D
02
0%
1F
13
1$
#117500
b1111 !
14
18
1/
1(
#119000
b11 "
b10 "
05
19
08
1<
10
0/
0(
1'
#120000
b111 !
b11 !
b1 !
0#
b0 !
04
0:
0=
0A
06
1;
1C
0E
07
18
0<
1@
1D
12
11
00
1/
0?
1(
0'
1&
1%
1<
0D
0F
08
0/
03
02
10
1'
0%
0$
0(
0@
01
0&
#122500
b11 "
b1 !
14
15
0;
1?
0<
00
0'
1@
11
1&
#125000
b11 !
1#
b10 !
04
1:
16
1;
17
18
1<
10
1/
0;
1(
1'
0<
08
0/
00
0'
0(
1<
10
1'
#126000
b111 "
b101 "
b100 "
05
09
1>
1;
0C
18
0<
0@
01
00
1/
0?
1(
0'
0&
1<
1D
12
10
1C
1'
1%
1@
11
1&
0D
02
0%
#127500
b11 !
14
0;
08
0/
1?
0(
0<
00
0C
0'
0@
01
0&
1D
12
1%
#129500
b101 "
15
18
1/
1(
#130000
b111 !
b101 !
0#
b100 !
04
0:
1=
06
0?
07
08
1<
1@
11
10
0/
1;
0(
1'
1&
0@
18
1/
01
0&
1(
0<
00
0'
#132500
b101 !
14
0;
08
0/
0(
1<
10
1'
#133000
b111 "
b110 "
05
19
1;
1?
18
0<
00
1/
0?
1(
0'
1<
1@
11
10
1'
1&
0@
01
0&
#135000
b111 !
1#
b110 !
04
1:
16
1?
17
08
0<
00
0/
0(
0'
1@
18
1/
11
1&
1(
#136500
b111 "
15
0;
08
0/
0(
1<
10
1'
#137500
b111 !
14
18
1/
1(
#140000
b1111 "
b1111 !
b1011 "
b1011 !
b1001 "
b1001 !
0#
b1000 "
b1000 !
04
0:
0=
1A
05
09
0>
1B
06
1;
0?
1C
1E
07
0<
0@
0D
1F
08
0/
13
02
01
00
0'
0&
0%
1$
0(
#142500
b1001 !
14
18
1/
1(
#143500
b1001 "
15
0;
08
0/
0(
1<
10
1'
#145000
b1011 !
1#
b1010 !
04
1:
16
1;
1?
17
18
0<
00
1/
0?
0;
1(
0'
1<
1@
08
0/
11
10
1?
1'
1&
0(
0@
0<
00
01
0&
0'
1@
11
1&
#147000
b1011 "
b1010 "
05
19
1;
18
1<
10
1/
1(
1'
0<
00
0'
#147500
b1011 !
14
0;
08
0/
0(
1<
10
1'
#150000
b1111 !
b1101 !
0#
b1100 !
04
0:
1=
06
1;
0C
07
18
0<
0@
01
00
1/
0?
1(
0'
0&
1<
1D
08
0/
12
10
1C
1'
1%
0(
1@
11
1&
0D
02
0%
#150500
b1011 "
15
18
1/
1(
#152500
b1101 !
14
0;
08
0/
1?
0(
0<
00
0C
0'
0@
01
0&
1D
12
1%
#154000
b1111 "
b1101 "
b1100 "
05
09
1>
1;
0?
18
1<
1@
11
10
1/
1(
1'
1&
0<
0@
01
00
0'
0&
#155000
b1111 !
1#
b1110 !
04
1:
16
17
08
1<
10
0/
0(
1'
18
1/
1(
#157500
b1101 "
b1111 !
14
15
0;
1?
0<
00
0'
1@
11
1&
#160000
b111 !
b11 !
b1 !
0#
b0 !
04
0:
0=
0A
06
0?
07
08
1<
0@
0D
02
01
10
0/
1C
1;
0(
1'
0&
0%
1@
18
1/
11
0E
1&
1(
1D
0<
00
12
1%
0'
0F
03
0$
#161000
b1111 "
b1110 "
05
19
08
1<
10
0/
0(
1'
#162500
b1 !
14
18
1/
1(
#164500
b1111 "
15
0;
08
0/
1?
0(
0<
00
0C
0'
0@
01
1E
0&
0D
02
0%
1F
13
1$
#165000
b11 !
1#
b10 !
04
1:
16
1;
17
18
1<
10
1/
0;
1(
1'
0<
08
0/
00
0'
0(
1<
10
1'
#167500
b11 !
14
18
1/
1(
#168000
b111 "
b11 "
b1 "
b0 "
05
09
0>
0B
1C
0E
08
0<
1@
1D
12
11
00
0/
0(
0'
1&
1%
0D
0F
03
02
0%
0$
#170000
b111 !
b101 !
0#
b100 !
04
0:
1=
06
1;
0?
0C
07
18
1<
0@
01
10
1/
1C
1(
1'
0&
0<
1@
1D
08
0/
12
11
00
0'
1&
1%
0(
0D
02
0%
#171500
b1 "
15
18
1/
1(
#172500
b101 !
14
0;
08
0/
0(
1<
10
1'
#175000
b11 "
b111 !
1#
b10 "
b110 !
04
1:
05
19
16
1;
1?
17
0C
0<
0@
18
1/
01
00
0'
0&
1(
1D
12
1%
#177500
b111 !
14
0;
08
0/
0(
1<
10
1'
#178500
b11 "
15
18
1/
1(
#180000
b1111 !
b1011 !
b1001 !
0#
b1000 !
04
0:
0=
1A
06
1C
1E
07
08
0<
1@
0D
02
11
00
0/
0E
1;
0(
0'
1&
0%
1D
1F
18
1/
13
12
0?
1%
1$
1(
0F
1<
10
03
0$
1'
0@
01
0&
#182000
b111 "
b101 "
b100 "
05
09
1>
08
0<
1@
11
00
0/
0(
0'
1&
#182500
b1001 !
14
18
1/
1(
#185000
b1011 !
1#
b1010 !
04
1:
16
17
08
1<
10
0/
0(
1'
18
1/
1(
#185500
b101 "
15
0;
08
0/
1?
0(
0<
00
0C
0'
0@
01
1E
0&
0D
02
0%
1F
13
1$
#187500
b1011 !
14
18
1/
1(
#189000
b111 "
b110 "
05
19
08
1<
10
0/
0(
1'
#190000
b1111 !
b1101 !
0#
b1100 !
04
0:
1=
06
1;
07
18
0<
1@
11
00
1/
0?
1(
0'
1&
1<
08
0/
10
1'
0(
0@
01
0&
#192500
b111 "
b1101 !
14
15
0;
1?
0<
00
0'
1@
11
1&
#195000
b1111 !
1#
b1110 !
04
1:
16
1;
17
18
1<
10
1/
0;
1(
1'
0<
08
0/
00
0'
0(
1<
10
1'
#196000
b1111 "
b1011 "
b1001 "
b1000 "
05
09
0>
1B
1;
18
0<
0@
1D
12
01
00
1/
0?
1(
0'
0&
1%
1<
10
1C
1'
1@
11
1&
0D
02
0%
#197500
b1111 !
14
0;
08
0/
1?
0(
0<
00
0C
0'
0@
01
0&
1D
12
1%
#199500
b1001 "
15
18
1/
1(
#200000
b111 !
b11 !
b1 !
0#
b0 !
04
0:
0=
0A
06
0?
1C
07
08
1<
1@
0D
02
11
10
0/
0E
1;
0(
1'
1&
0%
0@
1D
18
1/
12
01
0&
1%
1(
0F
0<
00
03
0$
0'
#202500
b1 !
14
0;
08
0/
0(
1<
10
1'
#203000
b1011 "
b1010 "
05
19
1;
1?
18
0<
00
1/
0?
1(
0'
1<
1@
11
10
1'
1&
0@
01
0&
#205000
b11 !
1#
b10 !
04
1:
16
1?
17
08
0<
00
0/
0(
0'
1@
18
1/
11
1&
1(
#206500
b1011 "
15
0;
08
0/
0(
1<
10
1'
#207500
b11 !
14
18
1/
1(
#210000
b1111 "
b111 !
b1101 "
b101 !
0#
b1100 "
b100 !
04
0:
1=
05
09
1>
06
1;
0?
0C
07
1E
0<
0@
0D
08
0/
02
01
00
0'
0&
0%
0(
1F
13
1$
#212500
b101 !
14
18
1/
1(
#213500
b1101 "
15
0;
08
0/
0(
1<
10
1'
#215000
b111 !
1#
b110 !
04
1:
16
1;
1?
17
18
0<
00
1/
0?
0;
1(
0'
1<
1@
08
0/
11
10
1?
1'
1&
0(
0@
0<
00
01
0&
0'
1@
11
1&
#217000
b1111 "
b1110 "
05
19
1;
18
1<
10
1/
1(
1'
0<
00
0'
#217500
b111 !
14
0;
08
0/
0(
1<
10
1'
#220000
b1111 !
b1011 !
b1001 !
0#
b1000 !
04
0:
0=
1A
06
1;
07
18
0<
0@
1D
12
01
00
1/
0?
1(
0'
0&
1%
1<
08
0/
10
1C
1'
0(
1@
11
1&
0D
02
0%
#220500
b1111 "
15
18
1/
1(
#222500
b1001 !
14
0;
08
0/
1?
0(
0<
00
0C
0'
0@
01
0&
1D
12
1%
#224000
b111 "
b11 "
b1 "
b0 "
05
09
0>
0B
1;
0?
1C
18
1<
1@
0D
02
11
10
1/
0E
1(
1'
1&
0%
0<
0@
1D
12
01
00
0'
0&
1%
0F
03
0$
#225000
b1011 !
1#
b1010 !
04
1:
16
17
08
1<
10
0/
0(
1'
18
1/
1(
#227500
b1 "
b1011 !
14
15
0;
1?
0<
00
0'
1@
11
1&
#230000
b1111 !
b1101 !
0#
b1100 !
04
0:
1=
06
0?
0C
07
08
1<
0@
01
10
0/
1C
1E
1;
0(
1'
0&
1@
0D
18
1/
02
11
0E
1&
0%
1(
1D
1F
0<
00
13
12
1%
1$
0'
0F
03
0$
#231000
b11 "
b10 "
05
19
08
1<
10
0/
0(
1'
#232500
b1101 !
14
18
1/
1(
#234500
b11 "
15
0;
08
0/
1?
0(
0<
00
0C
0'
0@
01
1E
0&
0D
02
0%
1F
13
1$
#235000
b1111 !
1#
b1110 !
04
1:
16
1;
17
18
1<
10
1/
0;
1(
1'
0<
08
0/
00
0'
0(
1<
10
1'
#237500
b1111 !
14
18
1/
1(
#238000
b111 "
b101 "
b100 "
05
09
1>
08
0<
1@
11
00
0/
0(
0'
1&
#240000
b111 !
b11 !
b1 !
0#
b0 !
04
0:
0=
0A
06
1;
0?
0E
07
18
1<
0@
1D
12
01
10
1/
1C
1(
1'
0&
1%
0<
1@
0F
08
0/
03
11
00
0'
1&
0$
0(
0D
02
0%
#241500
b101 "
15
18
1/
1(
#242500
b1 !
14
0;
08
0/
0(
1<
10
1'
#245000
b111 "
b11 !
1#
b110 "
b10 !
04
1:
05
19
16
1;
1?
17
0C
0<
0@
18
1/
01
00
0'
0&
1(
1D
12
1%
#247500
b11 !
14
0;
08
0/
0(
1<
10
1'
#248500
b111 "
15
18
1/
1(
#250000
b111 !
b101 !
0#
b100 !
04
0:
1=
06
07
08
0<
1@
11
00
0/
1;
0(
0'
1&
18
1/
0?
1(
1<
10
1'
0@
01
0&
#252000
b1111 "
b1011 "
b1001 "
b1000 "
05
09
0>
1B
1C
1E
08
0<
1@
0D
02
11
00
0/
0E
0(
0'
1&
0%
1D
1F
13
12
1%
1$
0F
03
0$
#252500
b101 !
14
18
1/
1(
#255000
b111 !
1#
b110 !
04
1:
16
17
08
1<
10
0/
0(
1'
18
1/
1(
#255500
b1001 "
15
0;
08
0/
1?
0(
0<
00
0C
0'
0@
01
1E
0&
0D
02
0%
1F
13
1$
#257500
b111 !
14
18
1/
1(
#259000
b1011 "
b1010 "
05
19
08
1<
10
0/
0(
1'
#260000
b1111 !
b1011 !
b1001 !
0#
b1000 !
04
0:
0=
1A
06
1;
1C
07
18
0<
1@
1D
12
11
00
1/
0?
1(
0'
1&
1%
1<
0D
08
0/
02
10
1'
0%
0(
0@
01
0&
#262500
b1011 "
b1001 !
14
15
0;
1?
0<
00
0'
1@
11
1&
#265000
b1011 !
1#
b1010 !
04
1:
16
1;
17
18
1<
10
1/
0;
1(
1'
0<
08
0/
00
0'
0(
1<
10
1'
#266000
b1111 "
b1101 "
b1100 "
05
09
1>
1;
0C
18
0<
0@
01
00
1/
0?
1(
0'
0&
1<
1D
12
10
1C
1'
1%
1@
11
1&
0D
02
0%
#267500
b1011 !
14
0;
08
0/
1?
0(
0<
00
0C
0'
0@
01
0&
1D
12
1%
#269500
b1101 "
15
18
1/
1(
#270000
b1111 !
b1101 !
0#
b1100 !
04
0:
1=
06
0?
07
08
1<
1@
11
10
0/
1;
0(
1'
1&
0@
18
1/
01
0&
1(
0<
00
0'
#272500
b1101 !
14
0;
08
0/
0(
1<
10
1'
#273000
b1111 "
b1110 "
05
19
1;
1?
18
0<
00
1/
0?
1(
0'
1<
1@
11
10
1'
1&
0@
01
0&
#275000
b1111 !
1#
b1110 !
04
1:
16
1?
17
08
0<
00
0/
0(
0'
1@
18
1/
11
1&
1(
#276500
b1111 "
15
0;
08
0/
0(
1<
10
1'
#277500
b1111 !
14
18
1/
1(
#280000
b111 "
b111 !
b11 "
b11 !
b1 "
b1 !
0#
b0 "
b0 !
04
0:
0=
0A
05
09
0>
0B
06
1;
0?
1C
0E
07
0<
0@
0D
0F
08
0/
03
02
01
00
0'
0&
0%
0$
0(
#282500
b1 !
14
18
1/
1(
#283500
b1 "
15
0;
08
0/
0(
1<
10
1'
#285000
b11 !
1#
b10 !
04
1:
16
1;
1?
17
18
0<
00
1/
0?
0;
1(
0'
1<
1@
08
0/
11
10
1?
1'
1&
0(
0@
0<
00
01
0&
0'
1@
11
1&
#287000
b11 "
b10 "
05
19
1;
18
1<
10
1/
1(
1'
0<
00
0'
#287500
b11 !
14
0;
08
0/
0(
1<
10
1'
#290000
b111 !
b101 !
0#
b100 !
04
0:
1=
06
1;
0C
07
18
0<
0@
01
00
1/
0?
1(
0'
0&
1<
1D
08
0/
12
10
1C
1'
1%
0(
1@
11
1&
0D
02
0%
#290500
b11 "
15
18
1/
1(
#292500
b101 !
14
0;
08
0/
1?
0(
0<
00
0C
0'
0@
01
0&
1D
12
1%
#294000
b111 "
b101 "
b100 "
05
09
1>
1;
0?
18
1<
1@
11
10
1/
1(
1'
1&
0<
0@
01
00
0'
0&
#295000
b111 !
1#
b110 !
04
1:
16
17
08
1<
10
0/
0(
1'
18
1/
1(
#297500
b101 "
b111 !
14
15
0;
1?
0<
00
0'
1@
11
1&
#300000
b1111 !
b1011 !
b1001 !
0#
b1000 !
04
0:
0=
1A
06
0?
1E
07
08
1<
0@
0D
02
01
10
0/
1C
1;
0(
1'
0&
0%
1@
1F
18
1/
13
11
0E
1&
1$
1(
1D
0<
00
12
1%
0'
0F
03
0$
#301000
b111 "
b110 "
05
19
08
1<
10
0/
0(
1'
#302500
b1001 !
14
18
1/
1(
#304500
b111 "
15
0;
08
0/
1?
0(
0<
00
0C
0'
0@
01
1E
0&
0D
02
0%
1F
13
1$
#305000
b1011 !
1#
b1010 !
04
1:
16
1;
17
18
1<
10
1/
0;
1(
1'
0<
08
0/
00
0'
0(
1<
10
1'
#307500
b1011 !
14
18
1/
1(
#308000
b1111 "
b1011 "
b1001 "
b1000 "
05
09
0>
1B
1C
08
0<
1@
1D
12
11
00
0/
0(
0'
1&
1%
0D
02
0%
#310000
b1111 !
b1101 !
0#
b1100 !
04
0:
1=
06
1;
0?
0C
07
18
1<
0@
01
10
1/
1C
1(
1'
0&
0<
1@
1D
08
0/
12
11
00
0'
1&
1%
0(
0D
02
0%
#311500
b1001 "
15
18
1/
1(
#312500
b1101 !
14
0;
08
0/
0(
1<
10
1'
#315000
b1011 "
b1111 !
1#
b1010 "
b1110 !
04
1:
05
19
16
1;
1?
17
0C
0<
0@
18
1/
01
00
0'
0&
1(
1D
12
1%
#317500
b1111 !
14
0;
08
0/
0(
1<
10
1'
#318500
b1011 "
15
18
1/
1(
#320000
b111 !
b11 !
b1 !
0#
b0 !
04
0:
0=
0A
06
1C
07
08
0<
1@
0D
02
11
00
0/
0E
1;
0(
0'
1&
0%
1D
18
1/
12
0?
1%
1(
0F
1<
10
03
0$
1'
0@
01
0&
#322000
b1111 "
b1101 "
b1100 "
05
09
1>
08
0<
1@
11
00
0/
0(
0'
1&
#322500
b1 !
14
18
1/
1(
#325000
b11 !
1#
b10 !
04
1:
16
17
08
1<
10
0/
0(
1'
18
1/
1(
#325500
b1101 "
15
0;
08
0/
1?
0(
0<
00
0C
0'
0@
01
1E
0&
0D
02
0%
1F
13
1$
#327500
b11 !
14
18
1/
1(
#329000
b1111 "
b1110 "
05
19
08
1<
10
0/
0(
1'
#330000
b111 !
b101 !
0#
b100 !
04
0:
1=
06
1;
07
18
0<
1@
11
00
1/
0?
1(
0'
1&
1<
08
0/
10
1'
0(
0@
01
0&
#332500
b1111 "
b101 !
14
15
0;
1?
0<
00
0'
1@
11
1&
#335000
b111 !
1#
b110 !
04
1:
16
1;
17
18
1<
10
1/
0;
1(
1'
0<
08
0/
00
0'
0(
1<
10
1'
#336000
b111 "
b11 "
b1 "
b0 "
05
09
0>
0B
1;
0E
18
0<
0@
1D
12
01
00
1/
0?
1(
0'
0&
1%
1<
0F
03
10
1C
1'
0$
1@
11
1&
0D
02
0%
#337500
b111 !
14
0;
08
0/
1?
0(
0<
00
0C
0'
0@
01
0&
1D
12
1%
#339500
b1 "
15
18
1/
1(
#340000
b1111 !
b1011 !
b1001 !
0#
b1000 !
04
0:
0=
1A
06
0?
1C
1E
07
08
1<
1@
0D
02
11
10
0/
0E
1;
0(
1'
1&
0%
0@
1D
1F
18
1/
13
12
01
0&
1%
1$
1(
0F
0<
00
03
0$
0'
#342500
b1001 !
14
0;
08
0/
0(
1<
10
1'
#343000
b11 "
b10 "
05
19
1;
1?
18
0<
00
1/
0?
1(
0'
1<
1@
11
10
1'
1&
0@
01
0&
#345000
b1011 !
1#
b1010 !
04
1:
16
1?
17
08
0<
00
0/
0(
0'
1@
18
1/
11
1&
1(
#346500
b11 "
15
0;
08
0/
0(
1<
10
1'
#347500
b1011 !
14
18
1/
1(
#350000
b111 "
b1111 !
b101 "
b1101 !
0#
b100 "
b1100 !
04
0:
1=
05
09
1>
06
1;
0?
0C
07
1E
0<
0@
0D
08
0/
02
01
00
0'
0&
0%
0(
1F
13
1$
#352500
b1101 !
14
18
1/
1(
#353500
b101 "
15
0;
08
0/
0(
1<
10
1'
#355000
b1111 !
1#
b1110 !
04
1:
16
1;
1?
17
18
0<
00
1/
0?
0;
1(
0'
1<
1@
08
0/
11
10
1?
1'
1&
0(
0@
0<
00
01
0&
0'
1@
11
1&
#357000
b111 "
b110 "
05
19
1;
18
1<
10
1/
1(
1'
0<
00
0'
#357500
b1111 !
14
0;
08
0/
0(
1<
10
1'
#360000
b111 !
b11 !
b1 !
0#
b0 !
04
0:
0=
0A
06
1;
0E
07
18
0<
0@
1D
12
01
00
1/
0?
1(
0'
0&
1%
1<
0F
08
0/
03
10
1C
1'
0$
0(
1@
11
1&
0D
02
0%
#360500
b111 "
15
18
1/
1(
#362500
b1 !
14
0;
08
0/
1?
0(
0<
00
0C
0'
0@
01
0&
1D
12
1%
#364000
b1111 "
b1011 "
b1001 "
b1000 "
05
09
0>
1B
1;
0?
1C
1E
18
1<
1@
0D
02
11
10
1/
0E
1(
1'
1&
0%
0<
0@
1D
1F
13
12
01
00
0'
0&
1%
1$
0F
03
0$
#365000
b11 !
1#
b10 !
04
1:
16
17
08
1<
10
0/
0(
1'
18
1/
1(
#367500
b1001 "
b11 !
14
15
0;
1?
0<
00
0'
1@
11
1&
#370000
b111 !
b101 !
0#
b100 !
04
0:
1=
06
0?
0C
07
08
1<
0@
01
10
0/
1C
1E
1;
0(
1'
0&
1@
0D
18
1/
02
11
0E
1&
0%
1(
1D
1F
0<
00
13
12
1%
1$
0'
0F
03
0$
#371000
b1011 "
b1010 "
05
19
08
1<
10
0/
0(
1'
#372500
b101 !
14
18
1/
1(
#374500
b1011 "
15
0;
08
0/
1?
0(
0<
00
0C
0'
0@
01
1E
0&
0D
02
0%
1F
13
1$
#375000
b111 !
1#
b110 !
04
1:
16
1;
17
18
1<
10
1/
0;
1(
1'
0<
08
0/
00
0'
0(
1<
10
1'
#377500
b111 !
14
18
1/
1(
#378000
b1111 "
b1101 "
b1100 "
05
09
1>
08
0<
1@
11
00
0/
0(
0'
1&
#380000
b1111 !
b1011 !
b1001 !
0#
b1000 !
04
0:
0=
1A
06
1;
0?
07
18
1<
0@
1D
12
01
10
1/
1C
1(
1'
0&
1%
0<
1@
08
0/
11
00
0'
1&
0(
0D
02
0%
#381500
b1101 "
15
18
1/
1(
#382500
b1001 !
14
0;
08
0/
0(
1<
10
1'
#385000
b1111 "
b1011 !
1#
b1110 "
b1010 !
04
1:
05
19
16
1;
1?
17
0C
0<
0@
18
1/
01
00
0'
0&
1(
1D
12
1%
#387500
b1011 !
14
0;
08
0/
0(
1<
10
1'
#388500
b1111 "
15
18
1/
1(
