Data_flip_flop/PRJ/simulation/qsim/Data_flip_flop.msim.vcd
$comment
	File created using the following command:
		vcd file Data_flip_flop.msim.vcd -direction
$end
$date
	Sun Nov 13 20:02:52 2022
$end
$version
	ModelSim Version 10.5b
$end
$timescale
	1ps
$end

$scope module Data_flip_flop_vlg_vec_tst $end
$var reg 1 ! CLK $end
$var reg 1 " D $end
$var wire 1 # Q $end
$var wire 1 $ QL $end

$scope module i1 $end
$var wire 1 % gnd $end
$var wire 1 & vcc $end
$var wire 1 ' unknown $end
$var tri1 1 ( devclrn $end
$var tri1 1 ) devpor $end
$var tri1 1 * devoe $end
$var wire 1 + Q~output_o $end
$var wire 1 , QL~output_o $end
$var wire 1 - D~input_o $end
$var wire 1 . CLK~input_o $end
$var wire 1 / inst2~1_combout $end
$var wire 1 0 inst4~combout $end
$upscope $end
$upscope $end
$enddefinitions $end
#0
$dumpvars
0!
0"
x#
x$
0%
1&
x'
1(
1)
1*
x+
x,
0-
0.
x/
x0
$end
#5000
1!
#5756
1.
#6962
1/
#8059
10
#10000
0!
#10802
0.
#10976
0+
0#
#12988
1,
1$
#15000
1!
#15756
1.
#20000
0!
#20802
0.
#25000
1!
#25756
1.
#30000
1"
0!
#30744
1-
#30802
0.
#35000
1!
#35756
1.
#36940
0/
#37957
00
#40000
0!
#40802
0.
#40873
1+
1#
#42912
0,
0$
#45000
1!
#45756
1.
#50000
0!
#50802
0.
#55000
1!
#55756
1.
#60000
0"
0!
#60791
0-
#60802
0.
#65000
1!
#65756
1.
#66962
1/
#68059
10
#70000
0!
#70802
0.
#70976
0+
0#
#72988
1,
1$
#75000
1!
#75756
1.
#80000
0!
#80802
0.
#85000
1!
#85756
1.
#90000
1"
0!
#90744
1-
#90802
0.
#95000
1!
#95756
1.
#96940
0/
#97957
00
#100000
0!
#100802
0.
#100873
1+
1#
#102912
0,
0$
#105000
1!
#105756
1.
#110000
0!
#110802
0.
#115000
1!
#115756
1.
#120000
0"
0!
#120791
0-
#120802
0.
#125000
1!
#125756
1.
#126962
1/
#128059
10
#130000
0!
#130802
0.
#130976
0+
0#
#132988
1,
1$
#135000
1!
#135756
1.
#140000
0!
#140802
0.
#145000
1!
#145756
1.
#150000
1"
0!
#150744
1-
#150802
0.
#155000
1!
#155756
1.
#156940
0/
#157957
00
#160000
0!
#160802
0.
#160873
1+
1#
#162912
0,
0$
#165000
1!
#165756
1.
#170000
0!
#170802
0.
#175000
1!
#175756
1.
#180000
0"
0!
#180791
0-
#180802
0.
#185000
1!
#185756
1.
#186962
1/
#188059
10
#190000
0!
#190802
0.
#190976
0+
0#
#192988
1,
1$
#195000
1!
#195756
1.
#200000
0!
#200802
0.
#205000
1!
#205756
1.
#210000
0!
#210802
0.
#215000
1!
#215756
1.
#220000
0!
#220802
0.
#225000
1!
#225756
1.
#230000
0!
#230802
0.
#235000
1!
#235756
1.
#240000
0!
#240802
0.
#245000
1!
#245756
1.
#250000
0!
#250802
0.
#255000
1!
#255756
1.
#260000
0!
#260802
0.
#265000
1!
#265756
1.
#270000
0!
#270802
0.
#275000
1!
#275756
1.
#280000
0!
#280802
0.
#285000
1!
#285756
1.
#290000
0!
#290802
0.
#295000
1!
#295756
1.
#300000
0!
#300802
0.
#305000
1!
#305756
1.
#310000
0!
#310802
0.
#315000
1!
#315756
1.
#320000
0!
#320802
0.
#325000
1!
#325756
1.
#330000
0!
#330802
0.
#335000
1!
#335756
1.
#340000
0!
#340802
0.
#345000
1!
#345756
1.
#350000
0!
#350802
0.
#355000
1!
#355756
1.
#360000
0!
#360802
0.
#365000
1!
#365756
1.
#370000
0!
#370802
0.
#375000
1!
#375756
1.
#380000
0!
#380802
0.
#385000
1!
#385756
1.
#390000
0!
#390802
0.
#395000
1!
#395756
1.
#400000
0!
#400802
0.
#405000
1!
#405756
1.
#410000
0!
#410802
0.
#415000
1!
#415756
1.
#420000
0!
#420802
0.
#425000
1!
#425756
1.
#430000
0!
#430802
0.
#435000
1!
#435756
1.
#440000
0!
#440802
0.
#445000
1!
#445756
1.
#450000
0!
#450802
0.
#455000
1!
#455756
1.
#460000
0!
#460802
0.
#465000
1!
#465756
1.
#470000
0!
#470802
0.
#475000
1!
#475756
1.
#480000
0!
#480802
0.
#485000
1!
#485756
1.
#490000
0!
#490802
0.
#495000
1!
#495756
1.
#500000
0!
#500802
0.
#505000
1!
#505756
1.
#510000
0!
#510802
0.
#515000
1!
#515756
1.
#520000
0!
#520802
0.
#525000
1!
#525756
1.
#530000
0!
#530802
0.
#535000
1!
#535756
1.
#540000
0!
#540802
0.
#545000
1!
#545756
1.
#550000
0!
#550802
0.
#555000
1!
#555756
1.
#560000
0!
#560802
0.
#565000
1!
#565756
1.
#570000
0!
#570802
0.
#575000
1!
#575756
1.
#580000
0!
#580802
0.
#585000
1!
#585756
1.
#590000
0!
#590802
0.
#595000
1!
#595756
1.
#600000
0!
#600802
0.
#605000
1!
#605756
1.
#610000
0!
#610802
0.
#615000
1!
#615756
1.
#620000
0!
#620802
0.
#625000
1!
#625756
1.
#630000
0!
#630802
0.
#635000
1!
#635756
1.
#640000
0!
#640802
0.
#645000
1!
#645756
1.
#650000
0!
#650802
0.
#655000
1!
#655756
1.
#660000
0!
#660802
0.
#665000
1!
#665756
1.
#670000
0!
#670802
0.
#675000
1!
#675756
1.
#680000
0!
#680802
0.
#685000
1!
#685756
1.
#690000
0!
#690802
0.
#695000
1!
#695756
1.
#700000
0!
#700802
0.
#705000
1!
#705756
1.
#710000
0!
#710802
0.
#715000
1!
#715756
1.
#720000
0!
#720802
0.
#725000
1!
#725756
1.
#730000
0!
#730802
0.
#735000
1!
#735756
1.
#740000
0!
#740802
0.
#745000
1!
#745756
1.
#750000
0!
#750802
0.
#755000
1!
#755756
1.
#760000
0!
#760802
0.
#765000
1!
#765756
1.
#770000
0!
#770802
0.
#775000
1!
#775756
1.
#780000
0!
#780802
0.
#785000
1!
#785756
1.
#790000
0!
#790802
0.
#795000
1!
#795756
1.
#800000
0!
#800802
0.
#805000
1!
#805756
1.
#810000
0!
#810802
0.
#815000
1!
#815756
1.
#820000
0!
#820802
0.
#825000
1!
#825756
1.
#830000
0!
#830802
0.
#835000
1!
#835756
1.
#840000
0!
#840802
0.
#845000
1!
#845756
1.
#850000
0!
#850802
0.
#855000
1!
#855756
1.
#860000
0!
#860802
0.
#865000
1!
#865756
1.
#870000
0!
#870802
0.
#875000
1!
#875756
1.
#880000
0!
#880802
0.
#885000
1!
#885756
1.
#890000
0!
#890802
0.
#895000
1!
#895756
1.
#900000
0!
#900802
0.
#905000
1!
#905756
1.
#910000
0!
#910802
0.
#915000
1!
#915756
1.
#920000
0!
#920802
0.
#925000
1!
#925756
1.
#930000
0!
#930802
0.
#935000
1!
#935756
1.
#940000
0!
#940802
0.
#945000
1!
#945756
1.
#950000
0!
#950802
0.
#955000
1!
#955756
1.
#960000
0!
#960802
0.
#965000
1!
#965756
1.
#970000
0!
#970802
0.
#975000
1!
#975756
1.
#980000
0!
#980802
0.
#985000
1!
#985756
1.
#990000
0!
#990802
0.
#995000
1!
#995756
1.
