Full_adder/prj/simulation/qsim/Full_adder1.msim.vcd
$comment
	File created using the following command:
		vcd file Full_adder1.msim.vcd -direction
$end
$date
	Mon Apr 10 14:24:53 2023
$end
$version
	ModelSim Version 10.5b
$end
$timescale
	1ps
$end

$scope module Full_adder1_vlg_vec_tst $end
$var reg 1 ! a $end
$var reg 1 " b $end
$var reg 1 # cin $end
$var wire 1 $ cout $end
$var wire 1 % sout $end

$scope module i1 $end
$var wire 1 & gnd $end
$var wire 1 ' vcc $end
$var wire 1 ( unknown $end
$var tri1 1 ) devclrn $end
$var tri1 1 * devpor $end
$var tri1 1 + devoe $end
$var wire 1 , sout~output_o $end
$var wire 1 - cout~output_o $end
$var wire 1 . b~input_o $end
$var wire 1 / cin~input_o $end
$var wire 1 0 a~input_o $end
$var wire 1 1 inst2~combout $end
$var wire 1 2 inst1|inst~combout $end
$upscope $end
$upscope $end
$enddefinitions $end
#0
$dumpvars
0!
0"
0#
0$
0%
0&
1'
x(
1)
1*
1+
0,
0-
0.
0/
00
01
02
$end
#2500
1!
10
11
1,
1%
#5000
1"
0!
1.
00
#7500
1!
10
#10000
1#
0"
0!
1/
0.
00
#12500
1!
10
#15000
1"
0!
1.
00
#17500
1!
10
12
01
0,
1-
1$
0%
#20000
0#
0"
0!
0/
0.
00
02
0-
0$
#22500
1!
10
11
1,
1%
#25000
1"
0!
1.
00
#27500
1!
10
#30000
1#
0"
0!
1/
0.
00
#32500
1!
10
#35000
1"
0!
1.
00
#37500
1!
10
12
01
0,
1-
1$
0%
#40000
0#
0"
0!
0/
0.
00
02
0-
0$
#42500
1!
10
11
1,
1%
#45000
1"
0!
1.
00
#47500
1!
10
#50000
1#
0"
0!
1/
0.
00
#52500
1!
10
#55000
1"
0!
1.
00
#57500
1!
10
12
01
0,
1-
1$
0%
#60000
0#
0"
0!
0/
0.
00
02
0-
0$
#62500
1!
10
11
1,
1%
#65000
1"
0!
1.
00
#67500
1!
10
#70000
1#
0"
0!
1/
0.
00
#72500
1!
10
#75000
1"
0!
1.
00
#77500
1!
10
12
01
0,
1-
1$
0%
#80000
0#
0"
0!
0/
0.
00
02
0-
0$
#82500
1!
10
11
1,
1%
#85000
1"
0!
1.
00
#87500
1!
10
#90000
1#
0"
0!
1/
0.
00
#92500
1!
10
#95000
1"
0!
1.
00
#97500
1!
10
12
01
0,
1-
1$
0%
#100000
0#
0"
0!
0/
0.
00
02
0-
0$
#102500
1!
10
11
1,
1%
#105000
1"
0!
1.
00
#107500
1!
10
#110000
1#
0"
0!
1/
0.
00
#112500
1!
10
#115000
1"
0!
1.
00
#117500
1!
10
12
01
0,
1-
1$
0%
#120000
0#
0"
0!
0/
0.
00
02
0-
0$
#122500
1!
10
11
1,
1%
#125000
1"
0!
1.
00
#127500
1!
10
#130000
1#
0"
0!
1/
0.
00
#132500
1!
10
#135000
1"
0!
1.
00
#137500
1!
10
12
01
0,
1-
1$
0%
#140000
0#
0"
0!
0/
0.
00
02
0-
0$
#142500
1!
10
11
1,
1%
#145000
1"
0!
1.
00
#147500
1!
10
#150000
1#
0"
0!
1/
0.
00
#152500
1!
10
#155000
1"
0!
1.
00
#157500
1!
10
12
01
0,
1-
1$
0%
#160000
0#
0"
0!
0/
0.
00
02
0-
0$
#162500
1!
10
11
1,
1%
#165000
1"
0!
1.
00
#167500
1!
10
#170000
1#
0"
0!
1/
0.
00
#172500
1!
10
#175000
1"
0!
1.
00
#177500
1!
10
12
01
0,
1-
1$
0%
#180000
0#
0"
0!
0/
0.
00
02
0-
0$
#182500
1!
10
11
1,
1%
#185000
1"
0!
1.
00
#187500
1!
10
#190000
1#
0"
0!
1/
0.
00
#192500
1!
10
#195000
1"
0!
1.
00
#197500
1!
10
12
01
0,
1-
1$
0%
#200000
0#
0"
0!
0/
0.
00
02
0-
0$
#202500
1!
10
11
1,
1%
#205000
1"
0!
1.
00
#207500
1!
10
#210000
1#
0"
0!
1/
0.
00
#212500
1!
10
#215000
1"
0!
1.
00
#217500
1!
10
12
01
0,
1-
1$
0%
#220000
0#
0"
0!
0/
0.
00
02
0-
0$
#222500
1!
10
11
1,
1%
#225000
1"
0!
1.
00
#227500
1!
10
#230000
1#
0"
0!
1/
0.
00
#232500
1!
10
#235000
1"
0!
1.
00
#237500
1!
10
12
01
0,
1-
1$
0%
#240000
0#
0"
0!
0/
0.
00
02
0-
0$
#242500
1!
10
11
1,
1%
#245000
1"
0!
1.
00
#247500
1!
10
#250000
1#
0"
0!
1/
0.
00
#252500
1!
10
#255000
1"
0!
1.
00
#257500
1!
10
12
01
0,
1-
1$
0%
#260000
0#
0"
0!
0/
0.
00
02
0-
0$
#262500
1!
10
11
1,
1%
#265000
1"
0!
1.
00
#267500
1!
10
#270000
1#
0"
0!
1/
0.
00
#272500
1!
10
#275000
1"
0!
1.
00
#277500
1!
10
12
01
0,
1-
1$
0%
#280000
0#
0"
0!
0/
0.
00
02
0-
0$
#282500
1!
10
11
1,
1%
#285000
1"
0!
1.
00
#287500
1!
10
#290000
1#
0"
0!
1/
0.
00
#292500
1!
10
#295000
1"
0!
1.
00
#297500
1!
10
12
01
0,
1-
1$
0%
#300000
0#
0"
0!
0/
0.
00
02
0-
0$
#302500
1!
10
11
1,
1%
#305000
1"
0!
1.
00
#307500
1!
10
#310000
1#
0"
0!
1/
0.
00
#312500
1!
10
#315000
1"
0!
1.
00
#317500
1!
10
12
01
0,
1-
1$
0%
#320000
0#
0"
0!
0/
0.
00
02
0-
0$
#322500
1!
10
11
1,
1%
#325000
1"
0!
1.
00
#327500
1!
10
#330000
1#
0"
0!
1/
0.
00
#332500
1!
10
#335000
1"
0!
1.
00
#337500
1!
10
12
01
0,
1-
1$
0%
#340000
0#
0"
0!
0/
0.
00
02
0-
0$
#342500
1!
10
11
1,
1%
#345000
1"
0!
1.
00
#347500
1!
10
#350000
1#
0"
0!
1/
0.
00
#352500
1!
10
#355000
1"
0!
1.
00
#357500
1!
10
12
01
0,
1-
1$
0%
#360000
0#
0"
0!
0/
0.
00
02
0-
0$
#362500
1!
10
11
1,
1%
#365000
1"
0!
1.
00
#367500
1!
10
#370000
1#
0"
0!
1/
0.
00
#372500
1!
10
#375000
1"
0!
1.
00
#377500
1!
10
12
01
0,
1-
1$
0%
#380000
0#
0"
0!
0/
0.
00
02
0-
0$
#382500
1!
10
11
1,
1%
#385000
1"
0!
1.
00
#387500
1!
10
#390000
1#
0"
0!
1/
0.
00
#392500
1!
10
#395000
1"
0!
1.
00
#397500
1!
10
12
01
0,
1-
1$
0%
#400000
0#
0"
0!
0/
0.
00
02
0-
0$
#402500
1!
10
11
1,
1%
#405000
1"
0!
1.
00
#407500
1!
10
#410000
1#
0"
0!
1/
0.
00
#412500
1!
10
#415000
1"
0!
1.
00
#417500
1!
10
12
01
0,
1-
1$
0%
#420000
0#
0"
0!
0/
0.
00
02
0-
0$
#422500
1!
10
11
1,
1%
#425000
1"
0!
1.
00
#427500
1!
10
#430000
1#
0"
0!
1/
0.
00
#432500
1!
10
#435000
1"
0!
1.
00
#437500
1!
10
12
01
0,
1-
1$
0%
#440000
0#
0"
0!
0/
0.
00
02
0-
0$
#442500
1!
10
11
1,
1%
#445000
1"
0!
1.
00
#447500
1!
10
#450000
1#
0"
0!
1/
0.
00
#452500
1!
10
#455000
1"
0!
1.
00
#457500
1!
10
12
01
0,
1-
1$
0%
#460000
0#
0"
0!
0/
0.
00
02
0-
0$
#462500
1!
10
11
1,
1%
#465000
1"
0!
1.
00
#467500
1!
10
#470000
1#
0"
0!
1/
0.
00
#472500
1!
10
#475000
1"
0!
1.
00
#477500
1!
10
12
01
0,
1-
1$
0%
#480000
0#
0"
0!
0/
0.
00
02
0-
0$
#482500
1!
10
11
1,
1%
#485000
1"
0!
1.
00
#487500
1!
10
#490000
1#
0"
0!
1/
0.
00
#492500
1!
10
#495000
1"
0!
1.
00
#497500
1!
10
12
01
0,
1-
1$
0%
#500000
0#
0"
0!
0/
0.
00
02
0-
0$
#502500
1!
10
11
1,
1%
#505000
1"
0!
1.
00
#507500
1!
10
#510000
1#
0"
0!
1/
0.
00
#512500
1!
10
#515000
1"
0!
1.
00
#517500
1!
10
12
01
0,
1-
1$
0%
#520000
0#
0"
0!
0/
0.
00
02
0-
0$
#522500
1!
10
11
1,
1%
#525000
1"
0!
1.
00
#527500
1!
10
#530000
1#
0"
0!
1/
0.
00
#532500
1!
10
#535000
1"
0!
1.
00
#537500
1!
10
12
01
0,
1-
1$
0%
#540000
0#
0"
0!
0/
0.
00
02
0-
0$
#542500
1!
10
11
1,
1%
#545000
1"
0!
1.
00
#547500
1!
10
#550000
1#
0"
0!
1/
0.
00
#552500
1!
10
#555000
1"
0!
1.
00
#557500
1!
10
12
01
0,
1-
1$
0%
#560000
0#
0"
0!
0/
0.
00
02
0-
0$
#562500
1!
10
11
1,
1%
#565000
1"
0!
1.
00
#567500
1!
10
#570000
1#
0"
0!
1/
0.
00
#572500
1!
10
#575000
1"
0!
1.
00
#577500
1!
10
12
01
0,
1-
1$
0%
#580000
0#
0"
0!
0/
0.
00
02
0-
0$
#582500
1!
10
11
1,
1%
#585000
1"
0!
1.
00
#587500
1!
10
#590000
1#
0"
0!
1/
0.
00
#592500
1!
10
#595000
1"
0!
1.
00
#597500
1!
10
12
01
0,
1-
1$
0%
#600000
0#
0"
0!
0/
0.
00
02
0-
0$
#602500
1!
10
11
1,
1%
#605000
1"
0!
1.
00
#607500
1!
10
#610000
1#
0"
0!
1/
0.
00
#612500
1!
10
#615000
1"
0!
1.
00
#617500
1!
10
12
01
0,
1-
1$
0%
#620000
0#
0"
0!
0/
0.
00
02
0-
0$
#622500
1!
10
11
1,
1%
#625000
1"
0!
1.
00
#627500
1!
10
#630000
1#
0"
0!
1/
0.
00
#632500
1!
10
#635000
1"
0!
1.
00
#637500
1!
10
12
01
0,
1-
1$
0%
#640000
0#
0"
0!
0/
0.
00
02
0-
0$
#642500
1!
10
11
1,
1%
#645000
1"
0!
1.
00
#647500
1!
10
#650000
1#
0"
0!
1/
0.
00
#652500
1!
10
#655000
1"
0!
1.
00
#657500
1!
10
12
01
0,
1-
1$
0%
#660000
0#
0"
0!
0/
0.
00
02
0-
0$
#662500
1!
10
11
1,
1%
#665000
1"
0!
1.
00
#667500
1!
10
#670000
1#
0"
0!
1/
0.
00
#672500
1!
10
#675000
1"
0!
1.
00
#677500
1!
10
12
01
0,
1-
1$
0%
#680000
0#
0"
0!
0/
0.
00
02
0-
0$
#682500
1!
10
11
1,
1%
#685000
1"
0!
1.
00
#687500
1!
10
#690000
1#
0"
0!
1/
0.
00
#692500
1!
10
#695000
1"
0!
1.
00
#697500
1!
10
12
01
0,
1-
1$
0%
#700000
0#
0"
0!
0/
0.
00
02
0-
0$
#702500
1!
10
11
1,
1%
#705000
1"
0!
1.
00
#707500
1!
10
#710000
1#
0"
0!
1/
0.
00
#712500
1!
10
#715000
1"
0!
1.
00
#717500
1!
10
12
01
0,
1-
1$
0%
#720000
0#
0"
0!
0/
0.
00
02
0-
0$
#722500
1!
10
11
1,
1%
#725000
1"
0!
1.
00
#727500
1!
10
#730000
1#
0"
0!
1/
0.
00
#732500
1!
10
#735000
1"
0!
1.
00
#737500
1!
10
12
01
0,
1-
1$
0%
#740000
0#
0"
0!
0/
0.
00
02
0-
0$
#742500
1!
10
11
1,
1%
#745000
1"
0!
1.
00
#747500
1!
10
#750000
1#
0"
0!
1/
0.
00
#752500
1!
10
#755000
1"
0!
1.
00
#757500
1!
10
12
01
0,
1-
1$
0%
#760000
0#
0"
0!
0/
0.
00
02
0-
0$
#762500
1!
10
11
1,
1%
#765000
1"
0!
1.
00
#767500
1!
10
#770000
1#
0"
0!
1/
0.
00
#772500
1!
10
#775000
1"
0!
1.
00
#777500
1!
10
12
01
0,
1-
1$
0%
#780000
0#
0"
0!
0/
0.
00
02
0-
0$
#782500
1!
10
11
1,
1%
#785000
1"
0!
1.
00
#787500
1!
10
#790000
1#
0"
0!
1/
0.
00
#792500
1!
10
#795000
1"
0!
1.
00
#797500
1!
10
12
01
0,
1-
1$
0%
#800000
0#
0"
0!
0/
0.
00
02
0-
0$
#802500
1!
10
11
1,
1%
#805000
1"
0!
1.
00
#807500
1!
10
#810000
1#
0"
0!
1/
0.
00
#812500
1!
10
#815000
1"
0!
1.
00
#817500
1!
10
12
01
0,
1-
1$
0%
#820000
0#
0"
0!
0/
0.
00
02
0-
0$
#822500
1!
10
11
1,
1%
#825000
1"
0!
1.
00
#827500
1!
10
#830000
1#
0"
0!
1/
0.
00
#832500
1!
10
#835000
1"
0!
1.
00
#837500
1!
10
12
01
0,
1-
1$
0%
#840000
0#
0"
0!
0/
0.
00
02
0-
0$
#842500
1!
10
11
1,
1%
#845000
1"
0!
1.
00
#847500
1!
10
#850000
1#
0"
0!
1/
0.
00
#852500
1!
10
#855000
1"
0!
1.
00
#857500
1!
10
12
01
0,
1-
1$
0%
#860000
0#
0"
0!
0/
0.
00
02
0-
0$
#862500
1!
10
11
1,
1%
#865000
1"
0!
1.
00
#867500
1!
10
#870000
1#
0"
0!
1/
0.
00
#872500
1!
10
#875000
1"
0!
1.
00
#877500
1!
10
12
01
0,
1-
1$
0%
#880000
0#
0"
0!
0/
0.
00
02
0-
0$
#882500
1!
10
11
1,
1%
#885000
1"
0!
1.
00
#887500
1!
10
#890000
1#
0"
0!
1/
0.
00
#892500
1!
10
#895000
1"
0!
1.
00
#897500
1!
10
12
01
0,
1-
1$
0%
#900000
0#
0"
0!
0/
0.
00
02
0-
0$
#902500
1!
10
11
1,
1%
#905000
1"
0!
1.
00
#907500
1!
10
#910000
1#
0"
0!
1/
0.
00
#912500
1!
10
#915000
1"
0!
1.
00
#917500
1!
10
12
01
0,
1-
1$
0%
#920000
0#
0"
0!
0/
0.
00
02
0-
0$
#922500
1!
10
11
1,
1%
#925000
1"
0!
1.
00
#927500
1!
10
#930000
1#
0"
0!
1/
0.
00
#932500
1!
10
#935000
1"
0!
1.
00
#937500
1!
10
12
01
0,
1-
1$
0%
#940000
0#
0"
0!
0/
0.
00
02
0-
0$
#942500
1!
10
11
1,
1%
#945000
1"
0!
1.
00
#947500
1!
10
#950000
1#
0"
0!
1/
0.
00
#952500
1!
10
#955000
1"
0!
1.
00
#957500
1!
10
12
01
0,
1-
1$
0%
#960000
0#
0"
0!
0/
0.
00
02
0-
0$
#962500
1!
10
11
1,
1%
#965000
1"
0!
1.
00
#967500
1!
10
#970000
1#
0"
0!
1/
0.
00
#972500
1!
10
#975000
1"
0!
1.
00
#977500
1!
10
12
01
0,
1-
1$
0%
#980000
0#
0"
0!
0/
0.
00
02
0-
0$
#982500
1!
10
11
1,
1%
#985000
1"
0!
1.
00
#987500
1!
10
#990000
1#
0"
0!
1/
0.
00
#992500
1!
10
#995000
1"
0!
1.
00
#997500
1!
10
12
01
0,
1-
1$
0%
